//pref
lightAmount|float|0.0|0.6|1
ambient|float|0.0|0.5|1.0
occlusion|float|0.0|0.5|1.0
diffuse|float|0.0|0.5|1.0
specular|float|0.0|0.5|1.0
shininess|float|0.5|15.0|30
boundExp|float|0.0|0.0|3
Phong with Spherical Harmonic (SH) lighting, developed by Martins Upitis.|note

//vert
void main() {
	gl_TexCoord[1] = gl_MultiTexCoord1;
	gl_Position = ftransform();
}
//frag
uniform int loops;
uniform float stepSize, sliceSize, viewWidth, viewHeight;
uniform sampler3D intensityVol; //3DTexture containing brightness
uniform sampler3D gradientVol; //3DTexture containing gradient direction and magnitude
uniform sampler2D backFace;
uniform vec3 clearColor,lightPosition, clipPlane;
uniform float clipPlaneDepth;
uniform float ambient,occlusion,diffuse,specular,shininess, boundExp, lightAmount;

const vec3 lightColor = vec3(0.94,0.94,0.74);//sunlight
const vec3 materialColor = vec3(1.0,0.5,0.5);
//const vec3 lightColor = vec3(1.0, 1.0, 1.0);//pure white
//const vec3 materialColor = vec3(1.0,1.0,1.0);


//Spherical harmonics constants
const float C1 = 0.429043;
const float C2 = 0.511664;
const float C3 = 0.743125;
const float C4 = 0.886227;
const float C5 = 0.247708;


//SH Coefficients for Kitchen
const vec3 L00  = vec3( 1.734544, 1.556294, 1.439345);
const vec3 L1m1 = vec3( 0.338957, 0.474754, 0.430223);
const vec3 L10  = vec3(-0.158125,-0.081117, 0.079266);
const vec3 L11  = vec3(-0.093501, 0.010596, 0.133635);
const vec3 L2m2 = vec3(-0.087476,-0.086387,-0.072157);
const vec3 L2m1 = vec3(-0.190691,-0.144194,-0.059567);
const vec3 L20  = vec3( 0.148483, 0.281598, 0.420320);
const vec3 L21  = vec3(-0.127079, 0.000459, 0.124372);
const vec3 L22  = vec3(-0.201219,-0.038875, 0.136428);

vec3 SH(vec3 vNormal)
{
	vNormal = vec3(vNormal.x,vNormal.z,-vNormal.y);
	vec3 diffuseColor =  C1 * L22 * (vNormal.x * vNormal.x - vNormal.y * vNormal.y) +
                    C3 * L20 * vNormal.z * vNormal.z +
                    C4 * L00 -
                    C5 * L20 +
                    2.0 * C1 * L2m2 * vNormal.x * vNormal.y +
                    2.0 * C1 * L21  * vNormal.x * vNormal.z +
                    2.0 * C1 * L2m1 * vNormal.y * vNormal.z +
                    2.0 * C2 * L11  * vNormal.x +
                    2.0 * C2 * L1m1 * vNormal.y +   
                    2.0 * C2 * L10  * vNormal.z;
    return diffuseColor;
}

//Lighting, Phong Model
//N=surfacenormal, V=view direction, L=lightsource
vec3 shading(vec3 N, vec3 V, vec3 L)
{
	vec3 final_color = vec3(0.0,0.0,0.0);
	float lambertTerm = dot(N,L);
	if(lambertTerm > 0.0)
	{
		vec3 E = normalize(V);
		vec3 R = reflect(-L, N);
		final_color += lightColor * materialColor * lambertTerm * diffuse;	
		float specularTerm = pow( max(dot(R, E), 0.0), shininess );
		final_color += lightColor * specularTerm * specular;	
	}
	return final_color;
}

void main() {
	// get normalized pixel coordinate in view port (e.g. [0,1]x[0,1])
	vec2 pixelCoord = gl_FragCoord.st;
	pixelCoord.x /= viewWidth;
	pixelCoord.y /= viewHeight;	
	// starting position of the ray is stored in the texture coordinate
	vec3 start = gl_TexCoord[1].xyz;
	vec3 backPosition = texture2D(backFace,pixelCoord).xyz;
	vec3 dir = backPosition - start;
	float len = length(dir);
	dir = normalize(dir);
	//next see if clip plane intersects ray
	if (clipPlaneDepth > -0.5) {
		gl_FragColor.rgb = vec3(1.0,0.0,0.0);
		//next, see if clip plane faces viewer
		bool frontface = (dot(dir , clipPlane) > 0.0);
		//next, distance from ray origin to clip plane
		float dis = dot(dir,clipPlane);
		if (dis != 0.0  )  dis = (-clipPlaneDepth - dot(clipPlane, start.xyz-0.5)) / dis;
		//we set "len = 0.0"  instead of "discard" or "return": return fails on 2006MacBookPro10.4ATI1900, discard fails on MacPro10.5NV8800 will not discard
		if ((frontface) && (dis >= len)) len = 0.0;
		if ((!frontface) && (dis <= 0.0)) len = 0.0;
		if ((dis > 0.0) && (dis < len)) {
			if (frontface) {
				start = start + dir * dis;
			} else {
				backPosition =  start + dir * (dis); 
			}
			dir = backPosition - start;
			len = length(dir);
			dir = normalize(dir);		
		}
	}	

	vec3 deltaDir = dir * stepSize;
	vec4 colorSample,gradientSample,colAcc = vec4(0.0,0.0,0.0,0.0);
	float lengthAcc = 0.0;
	//We need to calculate the ray's starting position. We add a random
	//fraction of the stepsize to the original starting point to dither the output
	vec3 samplePos = start.xyz + deltaDir* (fract(sin(gl_FragCoord.x * 12.9898 + gl_FragCoord.y * 78.233) * 43758.5453));
	vec4 prevNorm = vec4(0.0,0.0,0.0,0.0);
	float stepSizex2 = sliceSize * 2.0;
	for(int i = 0; i < loops; i++) {
		colorSample = texture3D(intensityVol,samplePos);
		if ((lengthAcc <= stepSizex2) && (colorSample.a > 0.01) )  colorSample.a = sqrt(colorSample.a); //opaque clipping surface
		colorSample.a = 1.0-pow((1.0 - colorSample.a), stepSize/sliceSize);//opacity correction
		if ((colorSample.a > 0.01) && (lengthAcc > stepSizex2)  ) {	
			gradientSample= texture3D(gradientVol,samplePos); //interpolate gradient direction and magnitude
			gradientSample.rgb = normalize(gradientSample.rgb*2.0 - 1.0); //direction saved as 0..1, rescale to -1..1
			//re-use previous normal if it has larger magnitude
			if (gradientSample.a < prevNorm.a)
				gradientSample.rgb = prevNorm.rgb;
			prevNorm = gradientSample;
		  if (lightAmount > 0.0) {
			vec3 ambientCol = mix(SH(gradientSample.rgb)*ambient, SH(gradientSample.rgb)*ambient*colorSample.rgb, occlusion);
			vec3 phong = shading(gradientSample.rgb,-dir,lightPosition)*lightAmount+ambientCol; //Diffuse&Specular
			if (lightAmount < 1.0) {
				colorSample.rgb = mix(colorSample.rgb,phong.rgb,lightAmount );
			} else {
				colorSample.rgb = phong;
			}	
		  }
		  if (boundExp > 0.0)
			colorSample.a = colorSample.a * pow(gradientSample.a,boundExp);	
		}

		colorSample.rgb *= colorSample.a; 
		//accumulate color
		colAcc= (1.0 - colAcc.a) * colorSample + colAcc;
		samplePos += deltaDir;
		lengthAcc += stepSize;
		// terminate if opacity > 1 or the ray is outside the volume
		if ( lengthAcc >= len || colAcc.a > 0.95 )
			break;
	}
	colAcc.a = colAcc.a/0.95;
	if ( colAcc.a < 1.0 )
		colAcc.rgb = mix(clearColor,colAcc.rgb,colAcc.a);
	if (len == 0.0) colAcc.rgb = clearColor;
	gl_FragColor = colAcc;
}